CSI:Dixie Greenville
…
Of the eighteen accident related deaths in Anderson from 1870-79 only two are listed without first and last names. One is “Smith” and another is referred to only as “colored”. Of note, one of the individual listed is John Calhoun Clemson, Thomas Green and Anna Clemson’s son. He was killed in a railway accident near Seneca.

#List all Anderon County deaths in 1870-79 with death type descending
anderson.seventies <- by.decade.anderson %>%
  filter(DECADE == "Seventies") %>%
  select(NAME, DECEASED.DESCRIPTION, DEATH.TYPE) %>%
  arrange(DEATH.TYPE)

anderson.seventies

# A tibble: 48 × 3
   NAME                 DECEASED.DESCRIPTION DEATH.TYPE
   <chr>                <chr>                <chr>     
 1 Allen Johnson        ""                   Accident  
 2 colored              "colored"            Accident  
 3 Eli David Junkins    ""                   Accident  
 4 George Hammond       ""                   Accident  
 5 Henry Thompson       ""                   Accident  
 6 James Jenkins        ""                   Accident  
 7 Jefferson Kitsinger  ""                   Accident  
 8 John Calhoun Clemson ""                   Accident  
 9 Lena Hutchinson      ""                   Accident  
10 M. J. Wilson         ""                   Accident  
# ℹ 38 more rows

There are thirteen accidents tied to a coroner’s report in the 1880’s in Greenville. There are none listed without surnames, but Julius Brockman is described as a black boy by in the CSI:Dixie data. The thirteen deaths described as natural causes are all recorded as first and last names.

#List all Greenville County deaths in 1880-89 with death type descending
greenville.eighties <- by.decade %>%
  filter(DECADE == "Eighties") %>%
  select(NAME, DECEASED.DESCRIPTION, DEATH.TYPE) %>%
  arrange(DEATH.TYPE)

greenville.eighties

# A tibble: 42 × 3
   NAME            DECEASED.DESCRIPTION DEATH.TYPE
   <chr>           <chr>                <chr>     
 1 Stephen Yeargin ""                   Accident  
 2 infant female   "infant female"      Accident  
 3 George Martin   ""                   Accident  
 4 R. Davis        ""                   Accident  
 5 Julius Brockman "negroe boy"         Accident  
 6 Rosa Blasingame ""                   Accident  
 7 John Lyons      ""                   Accident  
 8 Zilpha Fisher   ""                   Accident  
 9 Pressly Foster  "boy"                Accident  
10 Pauline Abraham "child"              Accident  
# ℹ 32 more rows

Lastly, there are 58 deaths listed as natural causes in Chesterfield in the 1890’s. None of the deaths are listed with surnames or described as an African American individual.

#List all Chesterfield County deaths in 1890-99 with death type descending
chesterfield.nineties <- by.decade.chesterfield %>%
  filter(DECADE == "Nineties") %>%
  select(NAME, DECEASED.DESCRIPTION, DEATH.TYPE) %>%
  arrange(DEATH.TYPE)

chesterfield.nineties

# A tibble: 93 × 3
   NAME              DECEASED.DESCRIPTION DEATH.TYPE
   <chr>             <chr>                <chr>     
 1 Augusta Sullivan  ""                   Accident  
 2 Austin Dunlap     ""                   Accident  
 3 Beatrice McGuine  ""                   Accident  
 4 Ben F. Williams   ""                   Accident  
 5 Charity Goldplate ""                   Accident  
 6 Chas McQueen      ""                   Accident  
 7 Duncan Fleming    ""                   Accident  
 8 Edmond Long       ""                   Accident  
 9 Emanuel Courtney  ""                   Accident  
10 Eva Tucker        ""                   Accident  
# ℹ 83 more rows
…
